---
title: Blog Introduction
author: Collin K. Berke, Ph.D.
date: '2020-02-15'
slug: blog-introduction
categories: []
tags: []
---

data

## # A tibble: 335 x 18
##    Season Institution Conference     S Kills Errors `Total Attacks` `Hit Pct`
##    <chr>  <chr>       <chr>      <dbl> <dbl>  <dbl>           <dbl>     <dbl>
##  1 2019-… Alabama St. SWAC         142  1708    777            4591     0.203
##  2 2019-… Houston     AAC          141  1677    745            5231     0.178
##  3 2019-… Utah        Pac-12       137  1909    711            4684     0.256
##  4 2019-… Prairie Vi… SWAC         136  1655    702            4961     0.192
##  5 2019-… Sam Housto… Southland    134  1807    741            5100     0.209
##  6 2019-… Southern I… MVC          134  1626    703            5123     0.18 
##  7 2019-… Washington  Pac-12       133  1794    609            4555     0.26 
##  8 2019-… Weber St.   Big Sky      133  1747    597            4800     0.24 
##  9 2019-… Illinois S… MVC          132  1809    781            4799     0.214
## 10 2019-… Northern C… Big Sky      132  1825    730            4755     0.23 
## # … with 325 more rows, and 10 more variables: Assists <dbl>, Aces <dbl>,
## #   SErr <dbl>, Digs <dbl>, RErr <dbl>, `Block Solos` <dbl>, `Block
## #   Assists` <dbl>, BErr <dbl>, PTS <dbl>, BHE <dbl>
